%TF.GenerationSoftware,KiCad,Pcbnew,8.0.1+b2*%
%TF.CreationDate,2024-04-17T20:45:20+02:00*%
%TF.ProjectId,thrmn,7468726d-6e2e-46b6-9963-61645f706362,0.0.0*%
%TF.SameCoordinates,Original*%
%TF.FileFunction,Copper,L1,Top*%
%TF.FilePolarity,Positive*%
%FSLAX46Y46*%
G04 Gerber Fmt 4.6, Leading zero omitted, Abs format (unit mm)*
G04 Created by KiCad (PCBNEW 8.0.1+b2) date 2024-04-17 20:45:20*
%MOMM*%
%LPD*%
G01*
G04 APERTURE LIST*
G04 Aperture macros list*
%AMRoundRect*
0 Rectangle with rounded corners*
0 $1 Rounding radius*
0 $2 $3 $4 $5 $6 $7 $8 $9 X,Y pos of 4 corners*
0 Add a 4 corners polygon primitive as box body*
4,1,4,$2,$3,$4,$5,$6,$7,$8,$9,$2,$3,0*
0 Add four circle primitives for the rounded corners*
1,1,$1+$1,$2,$3*
1,1,$1+$1,$4,$5*
1,1,$1+$1,$6,$7*
1,1,$1+$1,$8,$9*
0 Add four rect primitives between the rounded corners*
20,1,$1+$1,$2,$3,$4,$5,0*
20,1,$1+$1,$4,$5,$6,$7,0*
20,1,$1+$1,$6,$7,$8,$9,0*
20,1,$1+$1,$8,$9,$2,$3,0*%
G04 Aperture macros list end*
%TA.AperFunction,ComponentPad*%
%ADD10RoundRect,0.250000X-0.725000X0.600000X-0.725000X-0.600000X0.725000X-0.600000X0.725000X0.600000X0*%
%TD*%
%TA.AperFunction,ComponentPad*%
%ADD11O,1.950000X1.700000*%
%TD*%
%TA.AperFunction,ComponentPad*%
%ADD12R,1.700000X1.700000*%
%TD*%
%TA.AperFunction,ComponentPad*%
%ADD13O,1.700000X1.700000*%
%TD*%
%TA.AperFunction,SMDPad,CuDef*%
%ADD14RoundRect,0.250000X0.550000X-1.050000X0.550000X1.050000X-0.550000X1.050000X-0.550000X-1.050000X0*%
%TD*%
%TA.AperFunction,ComponentPad*%
%ADD15R,2.400000X1.600000*%
%TD*%
%TA.AperFunction,ComponentPad*%
%ADD16O,2.400000X1.600000*%
%TD*%
%TA.AperFunction,ComponentPad*%
%ADD17C,2.000000*%
%TD*%
%TA.AperFunction,ComponentPad*%
%ADD18RoundRect,0.250000X0.600000X0.750000X-0.600000X0.750000X-0.600000X-0.750000X0.600000X-0.750000X0*%
%TD*%
%TA.AperFunction,ComponentPad*%
%ADD19O,1.700000X2.000000*%
%TD*%
%TA.AperFunction,ComponentPad*%
%ADD20C,1.600000*%
%TD*%
%TA.AperFunction,ComponentPad*%
%ADD21R,1.600000X2.400000*%
%TD*%
%TA.AperFunction,ComponentPad*%
%ADD22O,1.600000X2.400000*%
%TD*%
%TA.AperFunction,ComponentPad*%
%ADD23RoundRect,0.250000X0.600000X0.725000X-0.600000X0.725000X-0.600000X-0.725000X0.600000X-0.725000X0*%
%TD*%
%TA.AperFunction,ComponentPad*%
%ADD24O,1.700000X1.950000*%
%TD*%
%TA.AperFunction,SMDPad,CuDef*%
%ADD25RoundRect,0.250000X-0.550000X1.050000X-0.550000X-1.050000X0.550000X-1.050000X0.550000X1.050000X0*%
%TD*%
%TA.AperFunction,ComponentPad*%
%ADD26R,2.400000X2.400000*%
%TD*%
%TA.AperFunction,ComponentPad*%
%ADD27O,2.400000X2.400000*%
%TD*%
%TA.AperFunction,SMDPad,CuDef*%
%ADD28R,1.100000X4.600000*%
%TD*%
%TA.AperFunction,SMDPad,CuDef*%
%ADD29R,10.800000X9.400000*%
%TD*%
%TA.AperFunction,ViaPad*%
%ADD30C,0.800000*%
%TD*%
%TA.AperFunction,Conductor*%
%ADD31C,0.750000*%
%TD*%
%TA.AperFunction,Conductor*%
%ADD32C,0.500000*%
%TD*%
G04 APERTURE END LIST*
D10*
%TO.P,RV3,1,1*%
%TO.N,Net-(C6-Pad1)*%
X161844000Y-54396000D03*
D11*
%TO.P,RV3,2,2*%
%TO.N,Net-(C7-Pad1)*%
X161844000Y-56896000D03*
%TO.P,RV3,3,3*%
%TO.N,GND*%
X161844000Y-59396000D03*
%TD*%
D12*
%TO.P,SW1,1,A*%
%TO.N,unconnected-(SW1-Pad1)*%
X104197000Y-68692000D03*
D13*
%TO.P,SW1,2,B*%
%TO.N,Net-(J1-Pad2)*%
X104197000Y-66152000D03*
%TO.P,SW1,3,C*%
%TO.N,VCC*%
X104197000Y-63612000D03*
%TD*%
D14*
%TO.P,C3,1*%
%TO.N,VCC*%
X104140000Y-59077000D03*
%TO.P,C3,2*%
%TO.N,GND*%
X104140000Y-55477000D03*
%TD*%
D15*
%TO.P,U1,1*%
%TO.N,+5V*%
X118862000Y-86111000D03*
D16*
%TO.P,U1,2*%
%TO.N,Net-(AE1-Pad1)*%
X118862000Y-83571000D03*
%TO.P,U1,3*%
%TO.N,Net-(R2-Pad2)*%
X118862000Y-81031000D03*
%TO.P,U1,4*%
%TO.N,Net-(R3-Pad1)*%
X118862000Y-78491000D03*
%TO.P,U1,5*%
%TO.N,+5V*%
X118862000Y-75951000D03*
%TO.P,U1,6*%
%TO.N,Net-(C1-Pad1)*%
X118862000Y-73411000D03*
%TO.P,U1,7,GND*%
%TO.N,GND*%
X118862000Y-70871000D03*
%TO.P,U1,8*%
X111242000Y-70871000D03*
%TO.P,U1,9*%
X111242000Y-73411000D03*
%TO.P,U1,10*%
%TO.N,unconnected-(U1-Pad10)*%
X111242000Y-75951000D03*
%TO.P,U1,11*%
%TO.N,unconnected-(U1-Pad11)*%
X111242000Y-78491000D03*
%TO.P,U1,12*%
%TO.N,GND*%
X111242000Y-81031000D03*
%TO.P,U1,13*%
X111242000Y-83571000D03*
%TO.P,U1,14,VCC*%
%TO.N,+5V*%
X111242000Y-86111000D03*
%TD*%
D17*
%TO.P,AE1,1,A*%
%TO.N,Net-(AE1-Pad1)*%
X123825000Y-92710000D03*
%TD*%
D18*
%TO.P,J3,1,Pin_1*%
%TO.N,Net-(C10-Pad2)*%
X164826000Y-72563000D03*
D19*
%TO.P,J3,2,Pin_2*%
%TO.N,GND*%
X162326000Y-72563000D03*
%TD*%
D20*
%TO.P,C1,1*%
%TO.N,Net-(C1-Pad1)*%
X129667000Y-75779000D03*
%TO.P,C1,2*%
%TO.N,GND*%
X129667000Y-70779000D03*
%TD*%
D21*
%TO.P,U4,1,GAIN*%
%TO.N,Net-(C8-Pad1)*%
X158359000Y-78344000D03*
D22*
%TO.P,U4,2,-*%
%TO.N,GND*%
X155819000Y-78344000D03*
%TO.P,U4,3,+*%
%TO.N,Net-(RV4-Pad2)*%
X153279000Y-78344000D03*
%TO.P,U4,4,GND*%
%TO.N,GND*%
X150739000Y-78344000D03*
%TO.P,U4,5*%
%TO.N,Net-(C10-Pad1)*%
X150739000Y-85964000D03*
%TO.P,U4,6,V+*%
%TO.N,VCC*%
X153279000Y-85964000D03*
%TO.P,U4,7,BYPASS*%
%TO.N,unconnected-(U4-Pad7)*%
X155819000Y-85964000D03*
%TO.P,U4,8,GAIN*%
%TO.N,Net-(C8-Pad2)*%
X158359000Y-85964000D03*
%TD*%
D17*
%TO.P,C9,1*%
%TO.N,Net-(C10-Pad1)*%
X150883000Y-92202000D03*
%TO.P,C9,2*%
%TO.N,GND*%
X143383000Y-92202000D03*
%TD*%
D23*
%TO.P,RV1,1,1*%
%TO.N,Net-(R3-Pad1)*%
X135255000Y-80518000D03*
D24*
%TO.P,RV1,2,2*%
X132755000Y-80518000D03*
%TO.P,RV1,3,3*%
%TO.N,Net-(R1-Pad2)*%
X130255000Y-80518000D03*
%TD*%
D15*
%TO.P,U3,1*%
%TO.N,Net-(R6-Pad2)*%
X144780000Y-56769000D03*
D16*
%TO.P,U3,2,-*%
%TO.N,Net-(R4-Pad2)*%
X144780000Y-59309000D03*
%TO.P,U3,3,+*%
%TO.N,Net-(R3-Pad2)*%
X144780000Y-61849000D03*
%TO.P,U3,4,V-*%
%TO.N,GND*%
X144780000Y-64389000D03*
%TO.P,U3,5,+*%
X152400000Y-64389000D03*
%TO.P,U3,6,-*%
X152400000Y-61849000D03*
%TO.P,U3,7*%
%TO.N,unconnected-(U3-Pad7)*%
X152400000Y-59309000D03*
%TO.P,U3,8,V+*%
%TO.N,+5V*%
X152400000Y-56769000D03*
%TD*%
D10*
%TO.P,RV4,1,1*%
%TO.N,Net-(C7-Pad2)*%
X143810000Y-72557000D03*
D11*
%TO.P,RV4,2,2*%
%TO.N,Net-(RV4-Pad2)*%
X143810000Y-75057000D03*
%TO.P,RV4,3,3*%
%TO.N,GND*%
X143810000Y-77557000D03*
%TD*%
D25*
%TO.P,C7,1*%
%TO.N,Net-(C7-Pad1)*%
X168656000Y-57382000D03*
%TO.P,C7,2*%
%TO.N,Net-(C7-Pad2)*%
X168656000Y-60982000D03*
%TD*%
D10*
%TO.P,RV2,1,1*%
%TO.N,Net-(R6-Pad2)*%
X137033000Y-52959000D03*
D11*
%TO.P,RV2,2,2*%
X137033000Y-55459000D03*
%TO.P,RV2,3,3*%
%TO.N,Net-(R4-Pad2)*%
X137033000Y-57959000D03*
%TD*%
D26*
%TO.P,C10,1*%
%TO.N,Net-(C10-Pad1)*%
X173609000Y-91240000D03*
D27*
%TO.P,C10,2*%
%TO.N,Net-(C10-Pad2)*%
X173609000Y-66240000D03*
%TD*%
D14*
%TO.P,C4,1*%
%TO.N,+5V*%
X125730000Y-59077000D03*
%TO.P,C4,2*%
%TO.N,GND*%
X125730000Y-55477000D03*
%TD*%
D20*
%TO.P,C2,1*%
%TO.N,Net-(AE1-Pad1)*%
X117181000Y-92583000D03*
%TO.P,C2,2*%
%TO.N,GND*%
X112181000Y-92583000D03*
%TD*%
D18*
%TO.P,J2,1,Pin_1*%
%TO.N,Net-(C7-Pad2)*%
X154285000Y-72436000D03*
D19*
%TO.P,J2,2,Pin_2*%
%TO.N,GND*%
X151785000Y-72436000D03*
%TD*%
D25*
%TO.P,C8,1*%
%TO.N,Net-(C8-Pad1)*%
X165227000Y-80474000D03*
%TO.P,C8,2*%
%TO.N,Net-(C8-Pad2)*%
X165227000Y-84074000D03*
%TD*%
D18*
%TO.P,J1,1,Pin_1*%
%TO.N,GND*%
X103358000Y-50973000D03*
D19*
%TO.P,J1,2,Pin_2*%
%TO.N,Net-(J1-Pad2)*%
X100858000Y-50973000D03*
%TD*%
D28*
%TO.P,U2,1,IN*%
%TO.N,VCC*%
X112395000Y-63052000D03*
%TO.P,U2,2,GND*%
%TO.N,GND*%
X114935000Y-63052000D03*
D29*
X114935000Y-53902000D03*
D28*
%TO.P,U2,3,OUT*%
%TO.N,+5V*%
X117475000Y-63052000D03*
%TD*%
D30*
%TO.N,GND*%
X123063000Y-52451000D03*
X107061000Y-55499000D03*
X121539000Y-49403000D03*
%TO.N,VCC*%
X134493000Y-90805000D03*
X107061000Y-63627000D03*
%TO.N,+5V*%
X115189000Y-74803000D03*
X148463000Y-55245000D03*
%TO.N,Net-(C7-Pad1)*%
X165481000Y-57277000D03*
%TO.N,Net-(C7-Pad2)*%
X165989000Y-64897000D03*
%TO.N,Net-(C8-Pad1)*%
X163449000Y-78359000D03*
%TO.N,Net-(C8-Pad2)*%
X162433000Y-85979000D03*
%TO.N,Net-(R4-Pad2)*%
X139827000Y-61849000D03*
X136271000Y-84963000D03*
%TD*%
D31*
%TO.N,GND*%
X125730000Y-55118000D02*
X123063000Y-52451000D01*
X121539000Y-49657000D02*
X121539000Y-49403000D01*
X114935000Y-53902000D02*
X117294000Y-53902000D01*
X114935000Y-63052000D02*
X114935000Y-53902000D01*
X125730000Y-55477000D02*
X125730000Y-55118000D01*
X107039000Y-55477000D02*
X107061000Y-55499000D01*
X104140000Y-55477000D02*
X107039000Y-55477000D01*
X117294000Y-53902000D02*
X121539000Y-49657000D01*
%TO.N,VCC*%
X108839000Y-90805000D02*
X107061000Y-89027000D01*
D32*
X104775000Y-61341000D02*
X107061000Y-63627000D01*
X107061000Y-63627000D02*
X107442000Y-63246000D01*
D31*
X134493000Y-90805000D02*
X108839000Y-90805000D01*
X107061000Y-89027000D02*
X107061000Y-63627000D01*
X104775000Y-59712000D02*
X104140000Y-59077000D01*
X106680000Y-63246000D02*
X104775000Y-61341000D01*
X107442000Y-63246000D02*
X106680000Y-63246000D01*
X107636000Y-63052000D02*
X107442000Y-63246000D01*
X104775000Y-61341000D02*
X104775000Y-59712000D01*
X112395000Y-63052000D02*
X107636000Y-63052000D01*
%TO.N,+5V*%
X117475000Y-63052000D02*
X121755000Y-63052000D01*
X145161000Y-55245000D02*
X140843000Y-50927000D01*
X115189000Y-67691000D02*
X117475000Y-65405000D01*
X121755000Y-63052000D02*
X125730000Y-59077000D01*
X140843000Y-50927000D02*
X134239000Y-50927000D01*
X115189000Y-74803000D02*
X115189000Y-67691000D01*
X128121000Y-59077000D02*
X125730000Y-59077000D01*
D32*
X117475000Y-63052000D02*
X117475000Y-65405000D01*
D31*
X148463000Y-55245000D02*
X145161000Y-55245000D01*
X128651000Y-56515000D02*
X128651000Y-58547000D01*
X128651000Y-58547000D02*
X128121000Y-59077000D01*
X134239000Y-50927000D02*
X128651000Y-56515000D01*
%TO.N,Net-(C7-Pad1)*%
X168551000Y-57277000D02*
X168656000Y-57382000D01*
X165481000Y-57277000D02*
X168551000Y-57277000D01*
%TO.N,Net-(C7-Pad2)*%
X168656000Y-62230000D02*
X165989000Y-64897000D01*
X168656000Y-60982000D02*
X168656000Y-62230000D01*
%TO.N,Net-(C8-Pad1)*%
X165227000Y-80137000D02*
X163449000Y-78359000D01*
X165227000Y-80474000D02*
X165227000Y-80137000D01*
%TO.N,Net-(C8-Pad2)*%
X163322000Y-85979000D02*
X165227000Y-84074000D01*
X162433000Y-85979000D02*
X163322000Y-85979000D01*
%TO.N,Net-(R4-Pad2)*%
X139827000Y-81407000D02*
X139827000Y-61849000D01*
X136271000Y-84963000D02*
X139827000Y-81407000D01*
%TD*%
M02*
