%TF.GenerationSoftware,KiCad,Pcbnew,8.0.1+b2*%
%TF.CreationDate,2024-04-17T20:45:21+02:00*%
%TF.ProjectId,thrmn,7468726d-6e2e-46b6-9963-61645f706362,0.0.0*%
%TF.SameCoordinates,Original*%
%TF.FileFunction,Legend,Bot*%
%TF.FilePolarity,Positive*%
%FSLAX46Y46*%
G04 Gerber Fmt 4.6, Leading zero omitted, Abs format (unit mm)*
G04 Created by KiCad (PCBNEW 8.0.1+b2) date 2024-04-17 20:45:21*
%MOMM*%
%LPD*%
G01*
G04 APERTURE LIST*
%ADD10C,0.150000*%
%ADD11C,0.120000*%
G04 APERTURE END LIST*
D10*
X132539666Y-87037819D02*
X132872999Y-86561628D01*
X133111094Y-87037819D02*
X133111094Y-86037819D01*
X133111094Y-86037819D02*
X132730142Y-86037819D01*
X132730142Y-86037819D02*
X132634904Y-86085438D01*
X132634904Y-86085438D02*
X132587285Y-86133057D01*
X132587285Y-86133057D02*
X132539666Y-86228295D01*
X132539666Y-86228295D02*
X132539666Y-86371152D01*
X132539666Y-86371152D02*
X132587285Y-86466390D01*
X132587285Y-86466390D02*
X132634904Y-86514009D01*
X132634904Y-86514009D02*
X132730142Y-86561628D01*
X132730142Y-86561628D02*
X133111094Y-86561628D01*
X131682523Y-86371152D02*
X131682523Y-87037819D01*
X131920618Y-85990200D02*
X132158713Y-86704485D01*
X132158713Y-86704485D02*
X131539666Y-86704485D01*
X146851666Y-49985819D02*
X147184999Y-49509628D01*
X147423094Y-49985819D02*
X147423094Y-48985819D01*
X147423094Y-48985819D02*
X147042142Y-48985819D01*
X147042142Y-48985819D02*
X146946904Y-49033438D01*
X146946904Y-49033438D02*
X146899285Y-49081057D01*
X146899285Y-49081057D02*
X146851666Y-49176295D01*
X146851666Y-49176295D02*
X146851666Y-49319152D01*
X146851666Y-49319152D02*
X146899285Y-49414390D01*
X146899285Y-49414390D02*
X146946904Y-49462009D01*
X146946904Y-49462009D02*
X147042142Y-49509628D01*
X147042142Y-49509628D02*
X147423094Y-49509628D01*
X145994523Y-48985819D02*
X146184999Y-48985819D01*
X146184999Y-48985819D02*
X146280237Y-49033438D01*
X146280237Y-49033438D02*
X146327856Y-49081057D01*
X146327856Y-49081057D02*
X146423094Y-49223914D01*
X146423094Y-49223914D02*
X146470713Y-49414390D01*
X146470713Y-49414390D02*
X146470713Y-49795342D01*
X146470713Y-49795342D02*
X146423094Y-49890580D01*
X146423094Y-49890580D02*
X146375475Y-49938200D01*
X146375475Y-49938200D02*
X146280237Y-49985819D01*
X146280237Y-49985819D02*
X146089761Y-49985819D01*
X146089761Y-49985819D02*
X145994523Y-49938200D01*
X145994523Y-49938200D02*
X145946904Y-49890580D01*
X145946904Y-49890580D02*
X145899285Y-49795342D01*
X145899285Y-49795342D02*
X145899285Y-49557247D01*
X145899285Y-49557247D02*
X145946904Y-49462009D01*
X145946904Y-49462009D02*
X145994523Y-49414390D01*
X145994523Y-49414390D02*
X146089761Y-49366771D01*
X146089761Y-49366771D02*
X146280237Y-49366771D01*
X146280237Y-49366771D02*
X146375475Y-49414390D01*
X146375475Y-49414390D02*
X146423094Y-49462009D01*
X146423094Y-49462009D02*
X146470713Y-49557247D01*
X154939666Y-51142580D02*
X154987285Y-51190200D01*
X154987285Y-51190200D02*
X155130142Y-51237819D01*
X155130142Y-51237819D02*
X155225380Y-51237819D01*
X155225380Y-51237819D02*
X155368237Y-51190200D01*
X155368237Y-51190200D02*
X155463475Y-51094961D01*
X155463475Y-51094961D02*
X155511094Y-50999723D01*
X155511094Y-50999723D02*
X155558713Y-50809247D01*
X155558713Y-50809247D02*
X155558713Y-50666390D01*
X155558713Y-50666390D02*
X155511094Y-50475914D01*
X155511094Y-50475914D02*
X155463475Y-50380676D01*
X155463475Y-50380676D02*
X155368237Y-50285438D01*
X155368237Y-50285438D02*
X155225380Y-50237819D01*
X155225380Y-50237819D02*
X155130142Y-50237819D01*
X155130142Y-50237819D02*
X154987285Y-50285438D01*
X154987285Y-50285438D02*
X154939666Y-50333057D01*
X154082523Y-50237819D02*
X154272999Y-50237819D01*
X154272999Y-50237819D02*
X154368237Y-50285438D01*
X154368237Y-50285438D02*
X154415856Y-50333057D01*
X154415856Y-50333057D02*
X154511094Y-50475914D01*
X154511094Y-50475914D02*
X154558713Y-50666390D01*
X154558713Y-50666390D02*
X154558713Y-51047342D01*
X154558713Y-51047342D02*
X154511094Y-51142580D01*
X154511094Y-51142580D02*
X154463475Y-51190200D01*
X154463475Y-51190200D02*
X154368237Y-51237819D01*
X154368237Y-51237819D02*
X154177761Y-51237819D01*
X154177761Y-51237819D02*
X154082523Y-51190200D01*
X154082523Y-51190200D02*
X154034904Y-51142580D01*
X154034904Y-51142580D02*
X153987285Y-51047342D01*
X153987285Y-51047342D02*
X153987285Y-50809247D01*
X153987285Y-50809247D02*
X154034904Y-50714009D01*
X154034904Y-50714009D02*
X154082523Y-50666390D01*
X154082523Y-50666390D02*
X154177761Y-50618771D01*
X154177761Y-50618771D02*
X154368237Y-50618771D01*
X154368237Y-50618771D02*
X154463475Y-50666390D01*
X154463475Y-50666390D02*
X154511094Y-50714009D01*
X154511094Y-50714009D02*
X154558713Y-50809247D01*
X156239666Y-62842580D02*
X156287285Y-62890200D01*
X156287285Y-62890200D02*
X156430142Y-62937819D01*
X156430142Y-62937819D02*
X156525380Y-62937819D01*
X156525380Y-62937819D02*
X156668237Y-62890200D01*
X156668237Y-62890200D02*
X156763475Y-62794961D01*
X156763475Y-62794961D02*
X156811094Y-62699723D01*
X156811094Y-62699723D02*
X156858713Y-62509247D01*
X156858713Y-62509247D02*
X156858713Y-62366390D01*
X156858713Y-62366390D02*
X156811094Y-62175914D01*
X156811094Y-62175914D02*
X156763475Y-62080676D01*
X156763475Y-62080676D02*
X156668237Y-61985438D01*
X156668237Y-61985438D02*
X156525380Y-61937819D01*
X156525380Y-61937819D02*
X156430142Y-61937819D01*
X156430142Y-61937819D02*
X156287285Y-61985438D01*
X156287285Y-61985438D02*
X156239666Y-62033057D01*
X155334904Y-61937819D02*
X155811094Y-61937819D01*
X155811094Y-61937819D02*
X155858713Y-62414009D01*
X155858713Y-62414009D02*
X155811094Y-62366390D01*
X155811094Y-62366390D02*
X155715856Y-62318771D01*
X155715856Y-62318771D02*
X155477761Y-62318771D01*
X155477761Y-62318771D02*
X155382523Y-62366390D01*
X155382523Y-62366390D02*
X155334904Y-62414009D01*
X155334904Y-62414009D02*
X155287285Y-62509247D01*
X155287285Y-62509247D02*
X155287285Y-62747342D01*
X155287285Y-62747342D02*
X155334904Y-62842580D01*
X155334904Y-62842580D02*
X155382523Y-62890200D01*
X155382523Y-62890200D02*
X155477761Y-62937819D01*
X155477761Y-62937819D02*
X155715856Y-62937819D01*
X155715856Y-62937819D02*
X155811094Y-62890200D01*
X155811094Y-62890200D02*
X155858713Y-62842580D01*
X137939666Y-68537819D02*
X138272999Y-68061628D01*
X138511094Y-68537819D02*
X138511094Y-67537819D01*
X138511094Y-67537819D02*
X138130142Y-67537819D01*
X138130142Y-67537819D02*
X138034904Y-67585438D01*
X138034904Y-67585438D02*
X137987285Y-67633057D01*
X137987285Y-67633057D02*
X137939666Y-67728295D01*
X137939666Y-67728295D02*
X137939666Y-67871152D01*
X137939666Y-67871152D02*
X137987285Y-67966390D01*
X137987285Y-67966390D02*
X138034904Y-68014009D01*
X138034904Y-68014009D02*
X138130142Y-68061628D01*
X138130142Y-68061628D02*
X138511094Y-68061628D01*
X137606332Y-67537819D02*
X136987285Y-67537819D01*
X136987285Y-67537819D02*
X137320618Y-67918771D01*
X137320618Y-67918771D02*
X137177761Y-67918771D01*
X137177761Y-67918771D02*
X137082523Y-67966390D01*
X137082523Y-67966390D02*
X137034904Y-68014009D01*
X137034904Y-68014009D02*
X136987285Y-68109247D01*
X136987285Y-68109247D02*
X136987285Y-68347342D01*
X136987285Y-68347342D02*
X137034904Y-68442580D01*
X137034904Y-68442580D02*
X137082523Y-68490200D01*
X137082523Y-68490200D02*
X137177761Y-68537819D01*
X137177761Y-68537819D02*
X137463475Y-68537819D01*
X137463475Y-68537819D02*
X137558713Y-68490200D01*
X137558713Y-68490200D02*
X137606332Y-68442580D01*
X149039666Y-67437819D02*
X149372999Y-66961628D01*
X149611094Y-67437819D02*
X149611094Y-66437819D01*
X149611094Y-66437819D02*
X149230142Y-66437819D01*
X149230142Y-66437819D02*
X149134904Y-66485438D01*
X149134904Y-66485438D02*
X149087285Y-66533057D01*
X149087285Y-66533057D02*
X149039666Y-66628295D01*
X149039666Y-66628295D02*
X149039666Y-66771152D01*
X149039666Y-66771152D02*
X149087285Y-66866390D01*
X149087285Y-66866390D02*
X149134904Y-66914009D01*
X149134904Y-66914009D02*
X149230142Y-66961628D01*
X149230142Y-66961628D02*
X149611094Y-66961628D01*
X148134904Y-66437819D02*
X148611094Y-66437819D01*
X148611094Y-66437819D02*
X148658713Y-66914009D01*
X148658713Y-66914009D02*
X148611094Y-66866390D01*
X148611094Y-66866390D02*
X148515856Y-66818771D01*
X148515856Y-66818771D02*
X148277761Y-66818771D01*
X148277761Y-66818771D02*
X148182523Y-66866390D01*
X148182523Y-66866390D02*
X148134904Y-66914009D01*
X148134904Y-66914009D02*
X148087285Y-67009247D01*
X148087285Y-67009247D02*
X148087285Y-67247342D01*
X148087285Y-67247342D02*
X148134904Y-67342580D01*
X148134904Y-67342580D02*
X148182523Y-67390200D01*
X148182523Y-67390200D02*
X148277761Y-67437819D01*
X148277761Y-67437819D02*
X148515856Y-67437819D01*
X148515856Y-67437819D02*
X148611094Y-67390200D01*
X148611094Y-67390200D02*
X148658713Y-67342580D01*
X130739666Y-91237819D02*
X131072999Y-90761628D01*
X131311094Y-91237819D02*
X131311094Y-90237819D01*
X131311094Y-90237819D02*
X130930142Y-90237819D01*
X130930142Y-90237819D02*
X130834904Y-90285438D01*
X130834904Y-90285438D02*
X130787285Y-90333057D01*
X130787285Y-90333057D02*
X130739666Y-90428295D01*
X130739666Y-90428295D02*
X130739666Y-90571152D01*
X130739666Y-90571152D02*
X130787285Y-90666390D01*
X130787285Y-90666390D02*
X130834904Y-90714009D01*
X130834904Y-90714009D02*
X130930142Y-90761628D01*
X130930142Y-90761628D02*
X131311094Y-90761628D01*
X130358713Y-90333057D02*
X130311094Y-90285438D01*
X130311094Y-90285438D02*
X130215856Y-90237819D01*
X130215856Y-90237819D02*
X129977761Y-90237819D01*
X129977761Y-90237819D02*
X129882523Y-90285438D01*
X129882523Y-90285438D02*
X129834904Y-90333057D01*
X129834904Y-90333057D02*
X129787285Y-90428295D01*
X129787285Y-90428295D02*
X129787285Y-90523533D01*
X129787285Y-90523533D02*
X129834904Y-90666390D01*
X129834904Y-90666390D02*
X130406332Y-91237819D01*
X130406332Y-91237819D02*
X129787285Y-91237819D01*
X133639666Y-72537819D02*
X133972999Y-72061628D01*
X134211094Y-72537819D02*
X134211094Y-71537819D01*
X134211094Y-71537819D02*
X133830142Y-71537819D01*
X133830142Y-71537819D02*
X133734904Y-71585438D01*
X133734904Y-71585438D02*
X133687285Y-71633057D01*
X133687285Y-71633057D02*
X133639666Y-71728295D01*
X133639666Y-71728295D02*
X133639666Y-71871152D01*
X133639666Y-71871152D02*
X133687285Y-71966390D01*
X133687285Y-71966390D02*
X133734904Y-72014009D01*
X133734904Y-72014009D02*
X133830142Y-72061628D01*
X133830142Y-72061628D02*
X134211094Y-72061628D01*
X132687285Y-72537819D02*
X133258713Y-72537819D01*
X132972999Y-72537819D02*
X132972999Y-71537819D01*
X132972999Y-71537819D02*
X133068237Y-71680676D01*
X133068237Y-71680676D02*
X133163475Y-71775914D01*
X133163475Y-71775914D02*
X133258713Y-71823533D01*
D11*
%TO.C,R4*%
X129058936Y-85698000D02*
X129513064Y-85698000D01*
X129058936Y-84228000D02*
X129513064Y-84228000D01*
%TO.C,R6*%
X146912064Y-50446000D02*
X146457936Y-50446000D01*
X146912064Y-51916000D02*
X146457936Y-51916000D01*
%TO.C,C6*%
X152144000Y-51770233D02*
X152144000Y-52062767D01*
X153164000Y-51770233D02*
X153164000Y-52062767D01*
%TO.C,C5*%
X155319000Y-58781733D02*
X155319000Y-59074267D01*
X156339000Y-58781733D02*
X156339000Y-59074267D01*
%TO.C,R3*%
X137440936Y-66521000D02*
X137895064Y-66521000D01*
X137440936Y-65051000D02*
X137895064Y-65051000D01*
%TO.C,R5*%
X149325000Y-62764936D02*
X149325000Y-63219064D01*
X147855000Y-62764936D02*
X147855000Y-63219064D01*
%TO.C,R2*%
X129058936Y-89254000D02*
X129513064Y-89254000D01*
X129058936Y-87784000D02*
X129513064Y-87784000D01*
%TO.C,R1*%
X132996000Y-75210936D02*
X132996000Y-75665064D01*
X134466000Y-75210936D02*
X134466000Y-75665064D01*
%TD*%
M02*
