%TF.GenerationSoftware,KiCad,Pcbnew,8.0.1+b2*%
%TF.CreationDate,2024-04-17T20:45:21+02:00*%
%TF.ProjectId,thrmn,7468726d-6e2e-46b6-9963-61645f706362,0.0.0*%
%TF.SameCoordinates,Original*%
%TF.FileFunction,Paste,Top*%
%TF.FilePolarity,Positive*%
%FSLAX46Y46*%
G04 Gerber Fmt 4.6, Leading zero omitted, Abs format (unit mm)*
G04 Created by KiCad (PCBNEW 8.0.1+b2) date 2024-04-17 20:45:21*
%MOMM*%
%LPD*%
G01*
G04 APERTURE LIST*
G04 Aperture macros list*
%AMRoundRect*
0 Rectangle with rounded corners*
0 $1 Rounding radius*
0 $2 $3 $4 $5 $6 $7 $8 $9 X,Y pos of 4 corners*
0 Add a 4 corners polygon primitive as box body*
4,1,4,$2,$3,$4,$5,$6,$7,$8,$9,$2,$3,0*
0 Add four circle primitives for the rounded corners*
1,1,$1+$1,$2,$3*
1,1,$1+$1,$4,$5*
1,1,$1+$1,$6,$7*
1,1,$1+$1,$8,$9*
0 Add four rect primitives between the rounded corners*
20,1,$1+$1,$2,$3,$4,$5,0*
20,1,$1+$1,$4,$5,$6,$7,0*
20,1,$1+$1,$6,$7,$8,$9,0*
20,1,$1+$1,$8,$9,$2,$3,0*%
G04 Aperture macros list end*
%ADD10RoundRect,0.250000X0.550000X-1.050000X0.550000X1.050000X-0.550000X1.050000X-0.550000X-1.050000X0*%
%ADD11RoundRect,0.250000X-0.550000X1.050000X-0.550000X-1.050000X0.550000X-1.050000X0.550000X1.050000X0*%
%ADD12R,5.250000X4.550000*%
%ADD13R,1.100000X4.600000*%
G04 APERTURE END LIST*
D10*
%TO.C,C3*%
X104140000Y-59077000D03*
X104140000Y-55477000D03*
%TD*%
D11*
%TO.C,C7*%
X168656000Y-57382000D03*
X168656000Y-60982000D03*
%TD*%
D10*
%TO.C,C4*%
X125730000Y-59077000D03*
X125730000Y-55477000D03*
%TD*%
D11*
%TO.C,C8*%
X165227000Y-80474000D03*
X165227000Y-84074000D03*
%TD*%
D12*
%TO.C,U2*%
X112160000Y-56327000D03*
X117710000Y-56327000D03*
X117710000Y-51477000D03*
X112160000Y-51477000D03*
D13*
X112395000Y-63052000D03*
X114935000Y-63052000D03*
X117475000Y-63052000D03*
%TD*%
M02*
