%TF.GenerationSoftware,KiCad,Pcbnew,8.0.1+b2*%
%TF.CreationDate,2024-04-17T20:45:21+02:00*%
%TF.ProjectId,thrmn,7468726d-6e2e-46b6-9963-61645f706362,0.0.0*%
%TF.SameCoordinates,Original*%
%TF.FileFunction,Soldermask,Bot*%
%TF.FilePolarity,Negative*%
%FSLAX46Y46*%
G04 Gerber Fmt 4.6, Leading zero omitted, Abs format (unit mm)*
G04 Created by KiCad (PCBNEW 8.0.1+b2) date 2024-04-17 20:45:21*
%MOMM*%
%LPD*%
G01*
G04 APERTURE LIST*
G04 Aperture macros list*
%AMRoundRect*
0 Rectangle with rounded corners*
0 $1 Rounding radius*
0 $2 $3 $4 $5 $6 $7 $8 $9 X,Y pos of 4 corners*
0 Add a 4 corners polygon primitive as box body*
4,1,4,$2,$3,$4,$5,$6,$7,$8,$9,$2,$3,0*
0 Add four circle primitives for the rounded corners*
1,1,$1+$1,$2,$3*
1,1,$1+$1,$4,$5*
1,1,$1+$1,$6,$7*
1,1,$1+$1,$8,$9*
0 Add four rect primitives between the rounded corners*
20,1,$1+$1,$2,$3,$4,$5,0*
20,1,$1+$1,$4,$5,$6,$7,0*
20,1,$1+$1,$6,$7,$8,$9,0*
20,1,$1+$1,$8,$9,$2,$3,0*%
G04 Aperture macros list end*
%ADD10RoundRect,0.250000X-0.725000X0.600000X-0.725000X-0.600000X0.725000X-0.600000X0.725000X0.600000X0*%
%ADD11O,1.950000X1.700000*%
%ADD12R,1.700000X1.700000*%
%ADD13O,1.700000X1.700000*%
%ADD14R,2.400000X1.600000*%
%ADD15O,2.400000X1.600000*%
%ADD16C,2.000000*%
%ADD17RoundRect,0.250000X0.600000X0.750000X-0.600000X0.750000X-0.600000X-0.750000X0.600000X-0.750000X0*%
%ADD18O,1.700000X2.000000*%
%ADD19C,1.600000*%
%ADD20R,1.600000X2.400000*%
%ADD21O,1.600000X2.400000*%
%ADD22RoundRect,0.250000X0.600000X0.725000X-0.600000X0.725000X-0.600000X-0.725000X0.600000X-0.725000X0*%
%ADD23O,1.700000X1.950000*%
%ADD24R,2.400000X2.400000*%
%ADD25O,2.400000X2.400000*%
%ADD26RoundRect,0.250000X-0.350000X-0.450000X0.350000X-0.450000X0.350000X0.450000X-0.350000X0.450000X0*%
%ADD27RoundRect,0.250000X0.350000X0.450000X-0.350000X0.450000X-0.350000X-0.450000X0.350000X-0.450000X0*%
%ADD28RoundRect,0.237500X-0.237500X0.300000X-0.237500X-0.300000X0.237500X-0.300000X0.237500X0.300000X0*%
%ADD29RoundRect,0.250000X-0.450000X0.350000X-0.450000X-0.350000X0.450000X-0.350000X0.450000X0.350000X0*%
G04 APERTURE END LIST*
D10*
%TO.C,RV3*%
X161844000Y-54396000D03*
D11*
X161844000Y-56896000D03*
X161844000Y-59396000D03*
%TD*%
D12*
%TO.C,SW1*%
X104197000Y-68692000D03*
D13*
X104197000Y-66152000D03*
X104197000Y-63612000D03*
%TD*%
D14*
%TO.C,U1*%
X118862000Y-86111000D03*
D15*
X118862000Y-83571000D03*
X118862000Y-81031000D03*
X118862000Y-78491000D03*
X118862000Y-75951000D03*
X118862000Y-73411000D03*
X118862000Y-70871000D03*
X111242000Y-70871000D03*
X111242000Y-73411000D03*
X111242000Y-75951000D03*
X111242000Y-78491000D03*
X111242000Y-81031000D03*
X111242000Y-83571000D03*
X111242000Y-86111000D03*
%TD*%
D16*
%TO.C,AE1*%
X123825000Y-92710000D03*
%TD*%
D17*
%TO.C,J3*%
X164826000Y-72563000D03*
D18*
X162326000Y-72563000D03*
%TD*%
D19*
%TO.C,C1*%
X129667000Y-75779000D03*
X129667000Y-70779000D03*
%TD*%
D20*
%TO.C,U4*%
X158359000Y-78344000D03*
D21*
X155819000Y-78344000D03*
X153279000Y-78344000D03*
X150739000Y-78344000D03*
X150739000Y-85964000D03*
X153279000Y-85964000D03*
X155819000Y-85964000D03*
X158359000Y-85964000D03*
%TD*%
D16*
%TO.C,C9*%
X150883000Y-92202000D03*
X143383000Y-92202000D03*
%TD*%
D22*
%TO.C,RV1*%
X135255000Y-80518000D03*
D23*
X132755000Y-80518000D03*
X130255000Y-80518000D03*
%TD*%
D14*
%TO.C,U3*%
X144780000Y-56769000D03*
D15*
X144780000Y-59309000D03*
X144780000Y-61849000D03*
X144780000Y-64389000D03*
X152400000Y-64389000D03*
X152400000Y-61849000D03*
X152400000Y-59309000D03*
X152400000Y-56769000D03*
%TD*%
D10*
%TO.C,RV4*%
X143810000Y-72557000D03*
D11*
X143810000Y-75057000D03*
X143810000Y-77557000D03*
%TD*%
D10*
%TO.C,RV2*%
X137033000Y-52959000D03*
D11*
X137033000Y-55459000D03*
X137033000Y-57959000D03*
%TD*%
D24*
%TO.C,C10*%
X173609000Y-91240000D03*
D25*
X173609000Y-66240000D03*
%TD*%
D19*
%TO.C,C2*%
X117181000Y-92583000D03*
X112181000Y-92583000D03*
%TD*%
D17*
%TO.C,J2*%
X154285000Y-72436000D03*
D18*
X151785000Y-72436000D03*
%TD*%
D17*
%TO.C,J1*%
X103358000Y-50973000D03*
D18*
X100858000Y-50973000D03*
%TD*%
D26*
%TO.C,R4*%
X128286000Y-84963000D03*
X130286000Y-84963000D03*
%TD*%
D27*
%TO.C,R6*%
X147685000Y-51181000D03*
X145685000Y-51181000D03*
%TD*%
D28*
%TO.C,C6*%
X152654000Y-51054000D03*
X152654000Y-52779000D03*
%TD*%
%TO.C,C5*%
X155829000Y-58065500D03*
X155829000Y-59790500D03*
%TD*%
D26*
%TO.C,R3*%
X136668000Y-65786000D03*
X138668000Y-65786000D03*
%TD*%
D29*
%TO.C,R5*%
X148590000Y-61992000D03*
X148590000Y-63992000D03*
%TD*%
D26*
%TO.C,R2*%
X128286000Y-88519000D03*
X130286000Y-88519000D03*
%TD*%
D29*
%TO.C,R1*%
X133731000Y-74438000D03*
X133731000Y-76438000D03*
%TD*%
M02*
